Авиакомпания: FlyEmirates
Самолеты:
1. Пассажирский самолет  {id =   1  производитель = Airbus       модель = A300B4       масса пустого =   88500 максимальная дальность =    6670 потребление топлива =  9.425 вместимость = 345
2. Пассажирский самолет  {id =   2  производитель = Airbus       модель = A340-200     масса пустого =  130000 максимальная дальность =   15000 потребление топлива =  5.581 вместимость = 375
3. Пассажирский самолет  {id =   3  производитель = Boeing       модель = 737-800      масса пустого =   41413 максимальная дальность =    5665 потребление топлива =  4.591 вместимость = 220
4. Пассажирский самолет  {id =   4  производитель = Boeing       модель = 777-300ER    масса пустого =  167800 максимальная дальность =   14490 потребление топлива = 12.511 вместимость = 550
5. Грузовой самолет      {id =   5  производитель = Airbus       модель = A300-600ST   масса пустого =   86000 максимальная дальность =    4600 потребление топлива = 14.713 макс. масса груза =  47000, макс. объем груза =  1410
6. Грузовой самолет      {id =   6  производитель = Antonov      модель = An-225       масса пустого =   86000 максимальная дальность =   15400 потребление топлива = 24.351 макс. масса груза = 250000, макс. объем груза =  1300
7. Пожарный самолет      {id =   7  производитель = Bombardier   модель = 415          масса пустого =   12880 максимальная дальность =    2443 потребление топлива =  2.379 объем водного бака =   6140
Статистика:
Общая вместимость: 1490
Общая грузоподъемность: 297000

Самолеты, сортированные по дальности полета:
1. Пожарный самолет      {id =   7  производитель = Bombardier   модель = 415          масса пустого =   12880 максимальная дальность =    2443 потребление топлива =  2.379 объем водного бака =   6140
2. Грузовой самолет      {id =   5  производитель = Airbus       модель = A300-600ST   масса пустого =   86000 максимальная дальность =    4600 потребление топлива = 14.713 макс. масса груза =  47000, макс. объем груза =  1410
3. Пассажирский самолет  {id =   3  производитель = Boeing       модель = 737-800      масса пустого =   41413 максимальная дальность =    5665 потребление топлива =  4.591 вместимость = 220
4. Пассажирский самолет  {id =   1  производитель = Airbus       модель = A300B4       масса пустого =   88500 максимальная дальность =    6670 потребление топлива =  9.425 вместимость = 345
5. Пассажирский самолет  {id =   4  производитель = Boeing       модель = 777-300ER    масса пустого =  167800 максимальная дальность =   14490 потребление топлива = 12.511 вместимость = 550
6. Пассажирский самолет  {id =   2  производитель = Airbus       модель = A340-200     масса пустого =  130000 максимальная дальность =   15000 потребление топлива =  5.581 вместимость = 375
7. Грузовой самолет      {id =   6  производитель = Antonov      модель = An-225       масса пустого =   86000 максимальная дальность =   15400 потребление топлива = 24.351 макс. масса груза = 250000, макс. объем груза =  1300
Самолеты с потреблением топлива в диапазоне [5.0, 15.0]:
1. Пассажирский самолет  {id =   1  производитель = Airbus       модель = A300B4       масса пустого =   88500 максимальная дальность =    6670 потребление топлива =  9.425 вместимость = 345
2. Пассажирский самолет  {id =   2  производитель = Airbus       модель = A340-200     масса пустого =  130000 максимальная дальность =   15000 потребление топлива =  5.581 вместимость = 375
3. Пассажирский самолет  {id =   4  производитель = Boeing       модель = 777-300ER    масса пустого =  167800 максимальная дальность =   14490 потребление топлива = 12.511 вместимость = 550
4. Грузовой самолет      {id =   5  производитель = Airbus       модель = A300-600ST   масса пустого =   86000 максимальная дальность =    4600 потребление топлива = 14.713 макс. масса груза =  47000, макс. объем груза =  1410